Segmentação de clientes de Food Delivery - LobData
…
Uma forma de analisar uma informação com tamanha dimensionalidade é tentar agrupa-la em clusters. Para isso fazemos uso de métodos de machine learning não-supervisionados que visam agrupar grupos similares, essa similaridade é medida considerando diferentes tipos de distâncias: euclidiana, hamming, manhattan, similaridade cosseno…

Cada distância dessa é indicada para um tipo de dado, sendo a mais usada a euclidiana (dados numéricos). Ao mudar a medida de distância damos origem a diferentes algorítmos de clusterização, e como você pode imaginar, essa pluralidade é tão grande que facilmente encontramos livros inteiros apenas sobre clusterização.

Aqui nós optamos por utilizar o mais popular entre eles, o k-means, e primeiramente vamos pivotar os dados para um formato que será melhor analisado pelo algorítmo.

Pivotando

order_client_clustering <- orders_client_raw %>%
  select(id_transacao, nome_item_fac, quantidade_item) %>%
  pivot_wider(id_transacao, names_from = nome_item_fac, values_from = quantidade_item, values_fill = 0)

order_client_clustering

# A tibble: 100,000 x 5
   id_transacao bebida pizza sobremesa salada
   <chr>         <dbl> <dbl>     <dbl>  <dbl>
 1 0x7901ee          2     2         2      0
 2 0x12b47f          0     0         1      1
 3 0x6d6979          0     2         2      0
 4 0x78dd1e          2     2         2      0
 5 0x4df8ab          0     0         3      3
 6 0x3be6d3          0     1         1      0
 7 0x755a0b          3     3         4      1
 8 0x653685          1     4         4      0
 9 0x44fe1b          1     2         2      0
10 0x8ade21          2     2         3      1
# … with 99,990 more rows
…
