…
Aqui nós optamos por utilizar o mais popular entre eles, o k-means, e primeiramente vamos pivotar os dados para um formato que será melhor analisado pelo algorítmo.

## Pivotando

```r
order_client_clustering <- orders_client_raw %>%
  select(id_transacao, nome_item_fac, quantidade_item) %>%
  pivot_wider(id_transacao, names_from = nome_item_fac, values_from = quantidade_item, values_fill = 0)

order_client_clustering
```

```r
# A tibble: 100,000 x 5
   id_transacao bebida pizza sobremesa salada
   <chr>         <dbl> <dbl>     <dbl>  <dbl>
 1 0x7901ee          2     2         2      0
 2 0x12b47f          0     0         1      1
 3 0x6d6979          0     2         2      0
 4 0x78dd1e          2     2         2      0
 5 0x4df8ab          0     0         3      3
 6 0x3be6d3          0     1         1      0
 7 0x755a0b          3     3         4      1
 8 0x653685          1     4         4      0
 9 0x44fe1b          1     2         2      0
10 0x8ade21          2     2         3      1
# … with 99,990 more rows
```
…
