How to Perform Correlation Analysis in Time Series data using R? - My New Hugo Site
…
# selecting columns to use in this tutorial
stackoverflow_tbl <- stackoverflow_raw %>%
  select(month, r, python)

I’ll do one basic transformation in this dataset that must help-us during the tutorial and in all methods.

# convert to date
stackoverflow_prep_tbl <- stackoverflow_tbl %>%
  mutate(date = str_glue("20{month}"),
         date = yearmonth(date) %>% as_date()) %>%
  select(date, r, python, -month)

# A tibble: 132 x 3
   date           r python
   <date>     <dbl>  <dbl>
 1 2009-01-01     8    631
 2 2009-02-01     9    633
 3 2009-03-01     4    766
 4 2009-04-01    12    768
 5 2009-05-01     2   1003
 6 2009-06-01     5   1046
 7 2009-07-01    51   1165
 8 2009-08-01    47   1143
 9 2009-09-01   139   1169
10 2009-10-01    73   1424
# … with 122 more rows
…
